ISSS608 Visual Analytics & Applications - Take-home_Ex1
…
financial_t <- financial %>%
  select(-total_amount) %>%
  pivot_wider(
    names_from = category,
    values_from = abs_amount,
    values_fn = sum,
    values_fill = 0
  ) %>%
  select(-RentAdjustment) %>%
  mutate(hourlyWage = Wage/(44*4))

financial_t

# A tibble: 10,691 × 9
# Groups:   participantId, yearmonth [10,691]
   participantId yearmonth month Education  Food Recreation Shelter   Wage
           <dbl> <chr>     <chr>     <dbl> <dbl>      <dbl>   <dbl>  <dbl>
 1             0 2022-03   03         38.0  268.      349.     555. 11932.
 2             0 2022-04   04         38.0  266.      219.     555.  8637.
 3             0 2022-05   05         38.0  265.      383.     555.  9048.
 4             0 2022-06   06         38.0  257.      466.     555.  9048.
 5             0 2022-07   07         38.0  270.     1070.     555.  8637.
 6             0 2022-08   08         38.0  262.      314.     555.  9459.
 7             0 2022-09   09         38.0  256.      295.     555.  9048.
 8             0 2022-10   10         38.0  267.       25.0    555.  8637.
 9             0 2022-11   11         38.0  261.      377.     555.  9048.
10             0 2022-12   12         38.0  266.      357.     555.  9048.
# ℹ 10,681 more rows
# ℹ 1 more variable: hourlyWage <dbl>
…
