ISSS608 Visual Analytics & Applications - Take-home_Ex2
…
Creating the Graph Dataframe

Show the code

MC2_graph <- tbl_graph(nodes = MC2_nodes_extracted,
                        edges = MC2_edges_aggregated, 
                        directed = TRUE) 

MC2_graph  

# A tbl_graph: 274 nodes and 164 edges
#
# A directed acyclic simple graph with 134 components
#
# A tibble: 274 × 3
  id                                              fishtype group
  <chr>                                           <chr>    <chr>
1 2 Wharf S.A. de C.V. Delivery                   <NA>     <NA> 
2 Adriatic Catch Ltd. Liability Co Transportation <NA>     <NA> 
3 Adriatic Tuna AS Solutions                      <NA>     <NA> 
4 Agua Limited Liability Company Services         <NA>     <NA> 
5 Andhra Pradesh   Sextant Oyj Forwading          <NA>     <NA> 
6 Angeline Sea NV Worldwide                       <NA>     <NA> 
# ℹ 268 more rows
#
# A tibble: 164 × 5
   from    to fishtype     year Weight
  <int> <int> <chr>       <dbl>  <int>
1     1   112 fish meat    2033     27
2     2   115 crustaceans  2033     24
3     3   122 crustaceans  2033     36
# ℹ 161 more rows
…
MC2_nodes_extracted_r <- MC2_nodes_extracted_r %>%
  left_join(MC2_edges_aggregated_r %>% select(target, fishtype), by = c("id" = "target")) %>%
  select(id, fishtype)

MC2_graph_r <- tbl_graph(nodes = MC2_nodes_extracted_r,
                        edges = MC2_edges_aggregated_r, 
                        directed = TRUE) 

MC2_graph_r 

# A tbl_graph: 53200 nodes and 49731 edges
#
# A directed multigraph with 46065 components
#
# A tibble: 53,200 × 2
  id                                   fishtype
  <chr>                                <chr>   
1 " Direct Herring Company Transit"    <NA>    
2 " Direct LLC Marine biology"         <NA>    
3 " Direct Shark Oyj Marine sanctuary" <NA>    
4 "-1515"                              molluscs
5 "-1515"                              molluscs
6 "-28"                                <NA>    
# ℹ 53,194 more rows
#
# A tibble: 49,731 × 5
   from    to fishtype  year Weight
  <int> <int> <chr>    <dbl>  <int>
1     1 25738 molluscs  2029      2
2     1 25738 molluscs  2030      3
3     1 25740 molluscs  2030      3
# ℹ 49,728 more rows
…
