ISSS608 Visual Analytics & Applications - Take-home_Ex2
…
Show the code

MC2_graph <- tbl_graph(nodes = MC2_nodes_extracted,
                        edges = MC2_edges_aggregated, 
                        directed = TRUE) 

MC2_graph  

# A tbl_graph: 502 nodes and 366 edges
#
# A directed acyclic multigraph with 303 components
#
# A tibble: 502 × 3
  id                                     fishtype group
  <chr>                                  <chr>    <chr>
1 1 Limited Liability Company            <NA>     <NA> 
2 2 Limited Liability Company            <NA>     <NA> 
3 Andhra Pradesh   Sextant Oyj Forwading <NA>     <NA> 
4 Angeline Sea NV Worldwide              <NA>     <NA> 
5 Aqua Aura SE Marine life               <NA>     <NA> 
6 Aqua Mermaid Seafarer Sp Solutions     <NA>     <NA> 
# ℹ 496 more rows
#
# A tibble: 366 × 5
   from    to fishtype     year Weight
  <int> <int> <chr>       <dbl>  <int>
1     1   140 frozen fish  2034     28
2     2   144 frozen fish  2033     32
3     2   144 frozen fish  2034     30
# ℹ 363 more rows
…
